%YAML 1.1
%TAG !u! tag:unity3d.com,2011:
--- !u!1045 &1
EditorBuildSettings:
  m_ObjectHideFlags: 0
  serializedVersion: 2
  m_Scenes:
  - enabled: 1
    path: Assets/_Scenes/MenuScene.unity
    guid: b2786af2f14374610a5d2c9839da036c
  - enabled: 1
    path: Assets/_Scenes/PrincipalScene.unity
    guid: 9e79e8d6a34ff499a9d040cdbc4f72f5
